projectKey=test_pl-sql
serverUrl=http://localhost:9000
serverVersion=10.4.0.87286
dashboardUrl=http://localhost:9000/dashboard?id=test_pl-sql
ceTaskId=e2c2d70a-322c-4200-b693-b712394c220f
ceTaskUrl=http://localhost:9000/api/ce/task?id=e2c2d70a-322c-4200-b693-b712394c220f
